<svg width="24" height="24" viewBox="0 0 24 24" fill="none" xmlns="http://www.w3.org/2000/svg">
<path d="M1 8.65217L12 1L12.3283 1.22839L23 8.65217V23H1V8.65217Z" stroke="black"/>
<mask id="path-2-inside-1" fill="white">
<path fill-rule="evenodd" clip-rule="evenodd" d="M8.04678 15.7687C8.1544 15.5169 8.4873 15.3333 8.8813 15.3333C9.34235 15.3333 9.71973 15.5846 9.75038 15.9026C10.6981 16.2794 11.3606 17.1414 11.3606 18.1445C11.3606 19.4945 10.1606 20.5889 8.68028 20.5889C7.2 20.5889 6 19.4945 6 18.1445C6 16.9935 6.87225 16.0283 8.04678 15.7687Z"/>
</mask>
<path d="M8.04678 15.7687L8.26258 16.7451L8.76439 16.6342L8.96634 16.1616L8.04678 15.7687ZM9.75038 15.9026L8.755 15.9986L8.81358 16.6063L9.38093 16.8319L9.75038 15.9026ZM8.96634 16.1616C8.93717 16.2299 8.90078 16.275 8.87507 16.3007C8.84952 16.3263 8.83039 16.3373 8.82501 16.3401C8.81625 16.3448 8.83538 16.3333 8.8813 16.3333V14.3333C8.25125 14.3333 7.44801 14.6251 7.12723 15.3757L8.96634 16.1616ZM8.8813 16.3333C8.93783 16.3333 8.95187 16.3501 8.92739 16.334C8.90846 16.3215 8.77661 16.2227 8.755 15.9986L10.7458 15.8067C10.6935 15.2645 10.3576 14.8811 10.0271 14.6635C9.691 14.4422 9.28582 14.3333 8.8813 14.3333V16.3333ZM9.38093 16.8319C10.003 17.0792 10.3606 17.6072 10.3606 18.1445H12.3606C12.3606 16.6755 11.3932 15.4796 10.1198 14.9734L9.38093 16.8319ZM10.3606 18.1445C10.3606 18.8575 9.69695 19.5889 8.68028 19.5889V21.5889C10.6242 21.5889 12.3606 20.1315 12.3606 18.1445H10.3606ZM8.68028 19.5889C7.66361 19.5889 7 18.8575 7 18.1445H5C5 20.1315 6.73639 21.5889 8.68028 21.5889V19.5889ZM7 18.1445C7 17.5316 7.47514 16.9192 8.26258 16.7451L7.83098 14.7922C6.26936 15.1374 5 16.4553 5 18.1445H7Z" fill="black" mask="url(#path-2-inside-1)"/>
<path d="M10.2706 18.0667C10.2706 18.8234 9.59388 19.4667 8.72059 19.4667C7.8473 19.4667 7.17059 18.8234 7.17059 18.0667C7.17059 17.31 7.8473 16.6667 8.72059 16.6667C9.59388 16.6667 10.2706 17.31 10.2706 18.0667Z" stroke="black" stroke-width="0.4"/>
<path d="M16.4552 8V8C17.088 8.35004 17.2764 9.12199 16.8759 9.72419L11.1663 18.31L10.0204 17.6762L16.4552 8Z" fill="black"/>
<mask id="path-6-inside-2" fill="white">
<path fill-rule="evenodd" clip-rule="evenodd" d="M16.5543 15.7687C16.4466 15.5169 16.1137 15.3333 15.7197 15.3333C15.2587 15.3333 14.8813 15.5846 14.8507 15.9026C13.903 16.2794 13.2405 17.1414 13.2405 18.1445C13.2405 19.4945 14.4405 20.5889 15.9208 20.5889C17.401 20.5889 18.601 19.4945 18.601 18.1445C18.601 16.9935 17.7288 16.0283 16.5543 15.7687Z"/>
</mask>
<path d="M16.5543 15.7687L16.3385 16.7451L15.8366 16.6342L15.6347 16.1616L16.5543 15.7687ZM14.8507 15.9026L15.846 15.9986L15.7875 16.6063L15.2201 16.8319L14.8507 15.9026ZM15.6347 16.1616C15.6639 16.2299 15.7003 16.275 15.726 16.3007C15.7515 16.3263 15.7706 16.3373 15.776 16.3401C15.7848 16.3448 15.7657 16.3333 15.7197 16.3333V14.3333C16.3498 14.3333 17.153 14.6251 17.4738 15.3757L15.6347 16.1616ZM15.7197 16.3333C15.6632 16.3333 15.6492 16.3501 15.6736 16.334C15.6926 16.3215 15.8244 16.2227 15.846 15.9986L13.8553 15.8067C13.9075 15.2645 14.2434 14.8811 14.5739 14.6635C14.91 14.4422 15.3152 14.3333 15.7197 14.3333V16.3333ZM15.2201 16.8319C14.598 17.0792 14.2405 17.6072 14.2405 18.1445H12.2405C12.2405 16.6755 13.2079 15.4796 14.4812 14.9734L15.2201 16.8319ZM14.2405 18.1445C14.2405 18.8575 14.9041 19.5889 15.9208 19.5889V21.5889C13.9769 21.5889 12.2405 20.1315 12.2405 18.1445H14.2405ZM15.9208 19.5889C16.9374 19.5889 17.601 18.8575 17.601 18.1445H19.601C19.601 20.1315 17.8646 21.5889 15.9208 21.5889V19.5889ZM17.601 18.1445C17.601 17.5316 17.1259 16.9192 16.3385 16.7451L16.7701 14.7922C18.3317 15.1374 19.601 16.4553 19.601 18.1445H17.601Z" fill="black" mask="url(#path-6-inside-2)"/>
<path d="M14.3304 18.0667C14.3304 18.8234 15.0072 19.4667 15.8804 19.4667C16.7537 19.4667 17.4304 18.8234 17.4304 18.0667C17.4304 17.31 16.7537 16.6667 15.8804 16.6667C15.0072 16.6667 14.3304 17.31 14.3304 18.0667Z" stroke="black" stroke-width="0.4"/>
<path d="M8.14587 8V8C7.51302 8.35004 7.32464 9.12199 7.72511 9.72419L13.4348 18.31L14.5806 17.6762L8.14587 8Z" fill="black"/>
</svg>
